C:\Automation\Basic-JVM-Framework\src\test\java\com\thomsonreuters\grc\accelus\regint\bdd\pageobjects\ReportHome.java
C:\Automation\Basic-JVM-Framework\src\test\java\com\thomsonreuters\grc\accelus\regint\bdd\stepdefinitions\advanced_search\ClickEnterToRunSearchStepDef.java
C:\Automation\Basic-JVM-Framework\src\test\java\com\thomsonreuters\grc\accelus\regint\bdd\pageobjects\Browser.java
C:\Automation\Basic-JVM-Framework\src\test\java\com\thomsonreuters\grc\accelus\regint\bdd\selectors\ManageCollectionsSelectors.java
C:\Automation\Basic-JVM-Framework\src\test\java\com\thomsonreuters\grc\accelus\regint\bdd\stepdefinitions\document_view\DocPanelCopyrightStepDef.java
C:\Automation\Basic-JVM-Framework\src\test\java\com\thomsonreuters\grc\accelus\regint\bdd\stepdefinitions\annotations\AnnotationsViewAnoteInDocumentViewerStepDef.java
C:\Automation\Basic-JVM-Framework\src\test\java\com\thomsonreuters\grc\accelus\regint\bdd\pageobjects\ReportView.java
C:\Automation\Basic-JVM-Framework\src\test\java\com\thomsonreuters\grc\accelus\regint\bdd\stepdefinitions\bookmarks\BookmarkADocumentInDocumentViewerStepDef.java
C:\Automation\Basic-JVM-Framework\src\test\java\com\thomsonreuters\grc\accelus\regint\bdd\support\FilterIds.java
C:\Automation\Basic-JVM-Framework\src\test\java\com\thomsonreuters\grc\accelus\regint\bdd\support\PageUtils.java
C:\Automation\Basic-JVM-Framework\src\test\java\com\thomsonreuters\grc\accelus\regint\bdd\stepdefinitions\doc_viewer_functions\DocFuncsContentNavigatorPart1StepDef.java
C:\Automation\Basic-JVM-Framework\src\test\java\com\thomsonreuters\grc\accelus\regint\bdd\support\rest\dto\AuthenticateRequestDto.java
C:\Automation\Basic-JVM-Framework\src\test\java\com\thomsonreuters\grc\accelus\regint\bdd\support\datapopulator\CollectionsDataPopulator.java
C:\Automation\Basic-JVM-Framework\src\test\java\com\thomsonreuters\grc\accelus\regint\bdd\selectors\ReportViewSelectors.java
C:\Automation\Basic-JVM-Framework\src\test\java\com\thomsonreuters\grc\accelus\regint\bdd\stepdefinitions\create_reports\FromDocumentViewerStepDef.java
C:\Automation\Basic-JVM-Framework\src\test\java\com\thomsonreuters\grc\accelus\regint\bdd\selectors\LoginSelectors.java
C:\Automation\Basic-JVM-Framework\src\test\java\com\thomsonreuters\grc\accelus\regint\bdd\support\rest\OnePassRestClient.java
C:\Automation\Basic-JVM-Framework\src\test\java\com\thomsonreuters\grc\accelus\regint\bdd\support\datapopulator\DataroomService.java
C:\Automation\Basic-JVM-Framework\src\test\java\com\thomsonreuters\grc\accelus\regint\bdd\stepdefinitions\browse_collections\ViewAnUpdateInCollectionStepDef.java
C:\Automation\Basic-JVM-Framework\src\test\java\com\thomsonreuters\grc\accelus\regint\bdd\stepdefinitions\annotations\AnnotationsDisplayAnAIconInSearchResultsStepDef.java
C:\Automation\Basic-JVM-Framework\src\test\java\com\thomsonreuters\grc\accelus\regint\bdd\selectors\CreateCollectionSelectors.java
C:\Automation\Basic-JVM-Framework\src\test\java\com\thomsonreuters\grc\accelus\regint\bdd\stepdefinitions\edit_report\EditReportStepDef.java
C:\Automation\Basic-JVM-Framework\src\test\java\com\thomsonreuters\grc\accelus\regint\bdd\stepdefinitions\advanced_search\KeywordSearchNaturalLanguageStepDef.java
C:\Automation\Basic-JVM-Framework\src\test\java\com\thomsonreuters\grc\accelus\regint\bdd\stepdefinitions\search_results_display\ResultsViewSubscribedOnly.java
C:\Automation\Basic-JVM-Framework\src\test\java\com\thomsonreuters\grc\accelus\regint\bdd\selectors\CollectionsBrowseSelectors.java
C:\Automation\Basic-JVM-Framework\src\test\java\com\thomsonreuters\grc\accelus\regint\bdd\stepdefinitions\browse_collections\CollectionUpdateParametersStepDef.java
C:\Automation\Basic-JVM-Framework\src\test\java\com\thomsonreuters\grc\accelus\regint\bdd\stepdefinitions\browse_calendar\SeeAllResultsForAdateStepDef.java
C:\Automation\Basic-JVM-Framework\src\test\java\com\thomsonreuters\grc\accelus\regint\bdd\stepdefinitions\document_view\PropertiesTabDisplayStepDef.java
C:\Automation\Basic-JVM-Framework\src\test\java\com\thomsonreuters\grc\accelus\regint\bdd\pageobjects\ReportHistory.java
C:\Automation\Basic-JVM-Framework\src\test\java\com\thomsonreuters\grc\accelus\regint\bdd\support\UserCredential.java
C:\Automation\Basic-JVM-Framework\src\test\java\com\thomsonreuters\grc\accelus\regint\bdd\stepdefinitions\search_collections\SearchCollectionsStepDef.java
C:\Automation\Basic-JVM-Framework\src\test\java\com\thomsonreuters\grc\accelus\regint\bdd\support\datapopulator\TeardownDataPopulator.java
C:\Automation\Basic-JVM-Framework\src\test\java\com\thomsonreuters\grc\accelus\regint\bdd\stepdefinitions\create_reports\NewReportWithNoDocumentsStepDef.java
C:\Automation\Basic-JVM-Framework\src\test\java\com\thomsonreuters\grc\accelus\regint\bdd\support\datapopulator\CollectionDef.java
C:\Automation\Basic-JVM-Framework\src\test\java\com\thomsonreuters\grc\accelus\regint\bdd\support\datapopulator\ReportDef.java
C:\Automation\Basic-JVM-Framework\src\test\java\com\thomsonreuters\grc\accelus\regint\bdd\stepdefinitions\create_reports\AddDocumentsToExistingReportFromSearchStepDef.java
C:\Automation\Basic-JVM-Framework\src\test\java\com\thomsonreuters\grc\accelus\regint\bdd\support\datapopulator\FilterDef.java
C:\Automation\Basic-JVM-Framework\src\test\java\com\thomsonreuters\grc\accelus\regint\bdd\support\rest\dto\RootFolderDto.java
C:\Automation\Basic-JVM-Framework\src\test\java\com\thomsonreuters\grc\accelus\regint\bdd\pageobjects\AdvancedSearch.java
C:\Automation\Basic-JVM-Framework\src\test\java\com\thomsonreuters\grc\accelus\regint\bdd\stepdefinitions\advanced_search\FilterSelectionStepDef.java
C:\Automation\Basic-JVM-Framework\src\test\java\com\thomsonreuters\grc\accelus\regint\bdd\stepdefinitions\advanced_search\KeywordSearchTermsAndConnectorsStepDef.java
C:\Automation\Basic-JVM-Framework\src\test\java\com\thomsonreuters\grc\accelus\regint\bdd\stepdefinitions\document_view\DocumentViewSharedStepDef.java
C:\Automation\Basic-JVM-Framework\src\test\java\com\thomsonreuters\grc\accelus\regint\bdd\stepdefinitions\advanced_search\SearchByMultipleFiltersStepDef.java
C:\Automation\Basic-JVM-Framework\src\test\java\com\thomsonreuters\grc\accelus\regint\bdd\support\rest\DataroomRestClient.java
C:\Automation\Basic-JVM-Framework\src\test\java\com\thomsonreuters\grc\accelus\regint\bdd\CucumberRunner.java
C:\Automation\Basic-JVM-Framework\src\test\java\com\thomsonreuters\grc\accelus\regint\bdd\selectors\CommonSelectors.java
C:\Automation\Basic-JVM-Framework\src\test\java\com\thomsonreuters\grc\accelus\regint\bdd\stepdefinitions\advanced_search\AdvancedSearchByDateStepDef.java
C:\Automation\Basic-JVM-Framework\src\test\java\com\thomsonreuters\grc\accelus\regint\bdd\stepdefinitions\document_view\DocPanelComplianceMaterialsLayoutVersionTypeStepDef.java
C:\Automation\Basic-JVM-Framework\src\test\java\com\thomsonreuters\grc\accelus\regint\bdd\support\rest\dto\SeamlessResponseDto.java
C:\Automation\Basic-JVM-Framework\src\test\java\com\thomsonreuters\grc\accelus\regint\bdd\support\ListUtils.java
C:\Automation\Basic-JVM-Framework\src\test\java\com\thomsonreuters\grc\accelus\regint\bdd\support\rest\dto\ContainerRootDto.java
C:\Automation\Basic-JVM-Framework\src\test\java\com\thomsonreuters\grc\accelus\regint\bdd\RunCukeTestsIT.java
C:\Automation\Basic-JVM-Framework\src\test\java\com\thomsonreuters\grc\accelus\regint\bdd\selectors\AdvancedSearchSelectors.java
C:\Automation\Basic-JVM-Framework\src\test\java\com\thomsonreuters\grc\accelus\regint\bdd\stepdefinitions\browse_reports\ReportsHomePageStepDef.java
C:\Automation\Basic-JVM-Framework\src\test\java\com\thomsonreuters\grc\accelus\regint\bdd\stepdefinitions\document_view\TableOfContentsDisplayNavigateStepDef.java
C:\Automation\Basic-JVM-Framework\src\test\java\com\thomsonreuters\grc\accelus\regint\bdd\pageobjects\DocumentView.java
C:\Automation\Basic-JVM-Framework\src\test\java\com\thomsonreuters\grc\accelus\regint\bdd\selectors\CreateReportSelectors.java
C:\Automation\Basic-JVM-Framework\src\test\java\com\thomsonreuters\grc\accelus\regint\bdd\stepdefinitions\browse_reports\IndividualReportHistoryStepDef.java
C:\Automation\Basic-JVM-Framework\src\test\java\com\thomsonreuters\grc\accelus\regint\bdd\stepdefinitions\annotations\AnnotationsShareDocumentWithANoteByEmailStepDef.java
C:\Automation\Basic-JVM-Framework\src\test\java\com\thomsonreuters\grc\accelus\regint\bdd\support\DocumentIds.java
C:\Automation\Basic-JVM-Framework\src\test\java\com\thomsonreuters\grc\accelus\regint\bdd\selectors\ReportsHomeSelectors.java
C:\Automation\Basic-JVM-Framework\src\test\java\com\thomsonreuters\grc\accelus\regint\bdd\stepdefinitions\search_results_display\FullScreenViewStepDef.java
C:\Automation\Basic-JVM-Framework\src\test\java\com\thomsonreuters\grc\accelus\regint\bdd\stepdefinitions\search_results_display\ResultsViewAllResults.java
C:\Automation\Basic-JVM-Framework\src\test\java\com\thomsonreuters\grc\accelus\regint\bdd\support\rest\dto\ProfileDto.java
C:\Automation\Basic-JVM-Framework\src\test\java\com\thomsonreuters\grc\accelus\regint\bdd\stepdefinitions\manage_collections\DeleteCollectionsStepDef.java
C:\Automation\Basic-JVM-Framework\src\test\java\com\thomsonreuters\grc\accelus\regint\bdd\stepdefinitions\manage_collections\SortCollectionsStepDef.java
C:\Automation\Basic-JVM-Framework\src\test\java\com\thomsonreuters\grc\accelus\regint\bdd\stepdefinitions\search_results_display\ProvideDetailedResultsForSingleContentTypeWithPaginationStepDef.java
C:\Automation\Basic-JVM-Framework\src\test\java\com\thomsonreuters\grc\accelus\regint\bdd\stepdefinitions\SharedStepDef.java
C:\Automation\Basic-JVM-Framework\src\test\java\com\thomsonreuters\grc\accelus\regint\bdd\stepdefinitions\annotations\AnnotationsAddEditDeleteAnoteInThePreviewPanesStepDef.java
C:\Automation\Basic-JVM-Framework\src\test\java\com\thomsonreuters\grc\accelus\regint\bdd\support\rest\dto\WorkProductTokenRequestDto.java
C:\Automation\Basic-JVM-Framework\src\test\java\com\thomsonreuters\grc\accelus\regint\bdd\selectors\DocumentShareSelectors.java
C:\Automation\Basic-JVM-Framework\src\test\java\com\thomsonreuters\grc\accelus\regint\bdd\selectors\ReportHistorySelectors.java
C:\Automation\Basic-JVM-Framework\src\test\java\com\thomsonreuters\grc\accelus\regint\bdd\stepdefinitions\search_results_display\BasicResultsStepDef.java
C:\Automation\Basic-JVM-Framework\src\test\java\com\thomsonreuters\grc\accelus\regint\bdd\stepdefinitions\document_view\DocPanelViewAuthorProfileStepDef.java
C:\Automation\Basic-JVM-Framework\src\test\java\com\thomsonreuters\grc\accelus\regint\bdd\support\rest\dto\AuthenticateResponseDto.java
C:\Automation\Basic-JVM-Framework\src\test\java\com\thomsonreuters\grc\accelus\regint\bdd\pageobjects\CollectionManage.java
C:\Automation\Basic-JVM-Framework\src\test\java\com\thomsonreuters\grc\accelus\regint\bdd\stepdefinitions\document_view\DocPanelStepDef.java
C:\Automation\Basic-JVM-Framework\src\test\java\com\thomsonreuters\grc\accelus\regint\bdd\stepdefinitions\search_collections\DetailedSearchCollectionsStepDef.java
C:\Automation\Basic-JVM-Framework\src\test\java\com\thomsonreuters\grc\accelus\regint\bdd\selectors\ReportEditSelectors.java
C:\Automation\Basic-JVM-Framework\src\test\java\com\thomsonreuters\grc\accelus\regint\bdd\pageobjects\ReportManage.java
C:\Automation\Basic-JVM-Framework\src\test\java\com\thomsonreuters\grc\accelus\regint\bdd\stepdefinitions\manage_collections\DuplicateCollectionsStepDef.java
C:\Automation\Basic-JVM-Framework\src\test\java\com\thomsonreuters\grc\accelus\regint\bdd\support\Driver.java
C:\Automation\Basic-JVM-Framework\src\test\java\com\thomsonreuters\grc\accelus\regint\bdd\support\rest\dto\WorkProductTokenResponseDto.java
C:\Automation\Basic-JVM-Framework\src\test\java\com\thomsonreuters\grc\accelus\regint\bdd\support\rest\dto\RegistrationKey.java
C:\Automation\Basic-JVM-Framework\src\test\java\com\thomsonreuters\grc\accelus\regint\bdd\stepdefinitions\browse_calendar\ViewFullContentTitleInCalendarViewStepDef.java
C:\Automation\Basic-JVM-Framework\src\test\java\com\thomsonreuters\grc\accelus\regint\bdd\TestContext.java
C:\Automation\Basic-JVM-Framework\src\test\java\com\thomsonreuters\grc\accelus\regint\bdd\selectors\CalendarSelectors.java
C:\Automation\Basic-JVM-Framework\src\test\java\com\thomsonreuters\grc\accelus\regint\bdd\pageobjects\ReportEdit.java
C:\Automation\Basic-JVM-Framework\src\test\java\com\thomsonreuters\grc\accelus\regint\bdd\pageobjects\CollectionHome.java
C:\Automation\Basic-JVM-Framework\src\test\java\com\thomsonreuters\grc\accelus\regint\bdd\support\Timeout.java
C:\Automation\Basic-JVM-Framework\src\test\java\com\thomsonreuters\grc\accelus\regint\bdd\stepdefinitions\bookmarks\BookmarkADocumentInPreviewViewStepDef.java
C:\Automation\Basic-JVM-Framework\src\test\java\com\thomsonreuters\grc\accelus\regint\bdd\pageobjects\Login.java
C:\Automation\Basic-JVM-Framework\src\test\java\com\thomsonreuters\grc\accelus\regint\bdd\Hooks.java
C:\Automation\Basic-JVM-Framework\src\test\java\com\thomsonreuters\grc\accelus\regint\bdd\stepdefinitions\document_view\DocPanelViewAndNavigatePublicationCrumbTrailStepDef.java
C:\Automation\Basic-JVM-Framework\src\test\java\com\thomsonreuters\grc\accelus\regint\bdd\pageobjects\ReportCreate.java
C:\Automation\Basic-JVM-Framework\src\test\java\com\thomsonreuters\grc\accelus\regint\bdd\stepdefinitions\search_results_display\SharedStepDef.java
C:\Automation\Basic-JVM-Framework\src\test\java\com\thomsonreuters\grc\accelus\regint\bdd\support\datapopulator\AnnotationsDataPopulator.java
C:\Automation\Basic-JVM-Framework\src\test\java\com\thomsonreuters\grc\accelus\regint\bdd\support\rest\dto\HeaderDto.java
C:\Automation\Basic-JVM-Framework\src\test\java\com\thomsonreuters\grc\accelus\regint\bdd\stepdefinitions\collection_creation\CreateCollectionDefaultsStepDef.java
C:\Automation\Basic-JVM-Framework\src\test\java\com\thomsonreuters\grc\accelus\regint\bdd\pageobjects\CollectionCreate.java
C:\Automation\Basic-JVM-Framework\src\test\java\com\thomsonreuters\grc\accelus\regint\bdd\stepdefinitions\document_view\PropertiesTabLaunchSearchFromDocumentPropertyStepDef.java
C:\Automation\Basic-JVM-Framework\src\test\java\com\thomsonreuters\grc\accelus\regint\bdd\selectors\ManageReportSelectors.java
C:\Automation\Basic-JVM-Framework\src\test\java\com\thomsonreuters\grc\accelus\regint\bdd\stepdefinitions\create_reports\AddDocsToExistingReportFromCollectionsStepDef.java
C:\Automation\Basic-JVM-Framework\src\test\java\com\thomsonreuters\grc\accelus\regint\bdd\stepdefinitions\manage_reports\DeleteReportStepDef.java
C:\Automation\Basic-JVM-Framework\src\test\java\com\thomsonreuters\grc\accelus\regint\bdd\stepdefinitions\doc_viewer_delivery\DocDeliveryShareDocumentByEmailStepDef.java
C:\Automation\Basic-JVM-Framework\src\test\java\com\thomsonreuters\grc\accelus\regint\bdd\stepdefinitions\browse_collections\CollectionsHomepageUserCollectionsStepDef.java
C:\Automation\Basic-JVM-Framework\src\test\java\com\thomsonreuters\grc\accelus\regint\bdd\selectors\CollectionsHomeSelectors.java
C:\Automation\Basic-JVM-Framework\src\test\java\com\thomsonreuters\grc\accelus\regint\bdd\pageobjects\ReportDialog.java
C:\Automation\Basic-JVM-Framework\src\test\java\com\thomsonreuters\grc\accelus\regint\bdd\pageobjects\DocumentShare.java
C:\Automation\Basic-JVM-Framework\src\test\java\com\thomsonreuters\grc\accelus\regint\bdd\stepdefinitions\annotations\AnnotationsDeletingAnoteInDocumentViewerStepDef.java
C:\Automation\Basic-JVM-Framework\src\test\java\com\thomsonreuters\grc\accelus\regint\bdd\pageobjects\Calendar.java
C:\Automation\Basic-JVM-Framework\src\test\java\com\thomsonreuters\grc\accelus\regint\bdd\stepdefinitions\annotations\AnnotationsAddAnoteInTheDocumentViewerStepDef.java
C:\Automation\Basic-JVM-Framework\src\test\java\com\thomsonreuters\grc\accelus\regint\bdd\stepdefinitions\document_view\LeftHandPanelBehaviourStepDef.java
C:\Automation\Basic-JVM-Framework\src\test\java\com\thomsonreuters\grc\accelus\regint\bdd\stepdefinitions\doc_viewer_series\DocViewerSeriesWidgetNoTocUsingSampleDataStepDef.java
C:\Automation\Basic-JVM-Framework\src\test\java\com\thomsonreuters\grc\accelus\regint\bdd\stepdefinitions\annotations\AnnotationsPrintADocumentWithNoteStepDef.java
C:\Automation\Basic-JVM-Framework\src\test\java\com\thomsonreuters\grc\accelus\regint\bdd\support\datapopulator\BrowseData.java
C:\Automation\Basic-JVM-Framework\src\test\java\com\thomsonreuters\grc\accelus\regint\bdd\support\AssertUtils.java
C:\Automation\Basic-JVM-Framework\src\test\java\com\thomsonreuters\grc\accelus\regint\bdd\pageobjects\CollectionBrowse.java
C:\Automation\Basic-JVM-Framework\src\test\java\com\thomsonreuters\grc\accelus\regint\bdd\stepdefinitions\annotations\AnnotationsEditAnoteInDocumentViewerStepDef.java
C:\Automation\Basic-JVM-Framework\src\test\java\com\thomsonreuters\grc\accelus\regint\bdd\stepdefinitions\browse_reports\ReportHistoryStepDef.java
C:\Automation\Basic-JVM-Framework\src\test\java\com\thomsonreuters\grc\accelus\regint\bdd\support\rest\dto\SeamlessRequestDto.java
C:\Automation\Basic-JVM-Framework\src\test\java\com\thomsonreuters\grc\accelus\regint\bdd\selectors\ReportsHistorySelectors.java
C:\Automation\Basic-JVM-Framework\src\test\java\com\thomsonreuters\grc\accelus\regint\bdd\stepdefinitions\create_reports\NewReportFromResultsStepDef.java
C:\Automation\Basic-JVM-Framework\src\test\java\com\thomsonreuters\grc\accelus\regint\bdd\selectors\DocumentViewSelectors.java
C:\Automation\Basic-JVM-Framework\src\test\java\com\thomsonreuters\grc\accelus\regint\bdd\stepdefinitions\create_reports\CreateReportSharedStepDef.java
C:\Automation\Basic-JVM-Framework\src\test\java\com\thomsonreuters\grc\accelus\regint\bdd\stepdefinitions\document_view\DocPanelViewEmptyLeafDocumentStepDef.java
C:\Automation\Basic-JVM-Framework\src\test\java\com\thomsonreuters\grc\accelus\regint\bdd\stepdefinitions\browse_calendar\ViewEventsRelatedToOneDayOnTheCalendarStepDef.java
C:\Automation\Basic-JVM-Framework\src\test\java\com\thomsonreuters\grc\accelus\regint\bdd\support\datapopulator\ReportDataPopulator.java
C:\Automation\Basic-JVM-Framework\src\test\java\com\thomsonreuters\grc\accelus\regint\bdd\support\Url.java
C:\Automation\Basic-JVM-Framework\src\test\java\com\thomsonreuters\grc\accelus\regint\bdd\pageobjects\AdvancedSearchDisplay.java
C:\Automation\Basic-JVM-Framework\src\test\java\com\thomsonreuters\grc\accelus\regint\bdd\stepdefinitions\advanced_search\BlankSearchStepDef.java
C:\Automation\Basic-JVM-Framework\src\test\java\com\thomsonreuters\grc\accelus\regint\bdd\stepdefinitions\search_results_display\KeywordHighlightingNaturalLanguageStepDef.java
C:\Automation\Basic-JVM-Framework\src\test\java\com\thomsonreuters\grc\accelus\regint\bdd\stepdefinitions\collection_creation\CreateCollectionFromSearchResultsStepDef.java
C:\Automation\Basic-JVM-Framework\src\test\java\com\thomsonreuters\grc\accelus\regint\bdd\stepdefinitions\document_view\DocPanelInternalLinksStepDef.java
C:\Automation\Basic-JVM-Framework\src\test\java\com\thomsonreuters\grc\accelus\regint\bdd\stepdefinitions\manage_collections\SortCollectionsManuallyStepDef.java
C:\Automation\Basic-JVM-Framework\src\test\java\com\thomsonreuters\grc\accelus\regint\bdd\stepdefinitions\manage_collections\DefaultCollectionOrderStepDef.java
C:\Automation\Basic-JVM-Framework\src\test\java\com\thomsonreuters\grc\accelus\regint\bdd\stepdefinitions\advanced_search\SearchDateFormatStepDef.java
C:\Automation\Basic-JVM-Framework\src\test\java\com\thomsonreuters\grc\accelus\regint\bdd\support\datapopulator\BookmarksDataPopulator.java
C:\Automation\Basic-JVM-Framework\src\test\java\com\thomsonreuters\grc\accelus\regint\bdd\stepdefinitions\document_view\DocPanelExternalLinksStepDef.java
